<?xml version="1.0" encoding="UTF-8"?>
<svg width="40px" height="40px" viewBox="0 0 40 40" version="1.1" xmlns="http://www.w3.org/2000/svg" xmlns:xlink="http://www.w3.org/1999/xlink">
    <!-- Generator: Sketch 52.6 (67491) - http://www.bohemiancoding.com/sketch -->
    <title>instagram</title>
    <desc>Created with Sketch.</desc>
    <g id="Symbols" stroke="none" stroke-width="1" fill="none" fill-rule="evenodd">
        <g id="vitrine/footer" transform="translate(-957.000000, -184.000000)" fill="#001E62" fill-rule="nonzero">
            <g id="Group-2" transform="translate(130.000000, 80.000000)">
                <g id="Group" transform="translate(827.000000, 104.000000)">
                    <path d="M20,40 C8.954305,40 0,31.045695 0,20 C0,8.954305 8.954305,0 20,0 C31.045695,0 40,8.954305 40,20 C40,31.045695 31.045695,40 20,40 Z M19.5037934,16.1414147 C17.0912083,16.1414147 15.1452081,18.0874149 15.1452081,20.5 C15.1452081,22.9125851 17.0912083,24.8585853 19.5037934,24.8585853 C21.9163784,24.8585853 23.8623787,22.9125851 23.8623787,20.5 C23.8623787,18.0874149 21.9163784,16.1414147 19.5037934,16.1414147 Z M19.5037934,23.3336494 C17.9447172,23.3336494 16.6701439,22.0628696 16.6701439,20.5 C16.6701439,18.9371304 17.9409238,17.6663506 19.5037934,17.6663506 C21.0666629,17.6663506 22.3374428,18.9371304 22.3374428,20.5 C22.3374428,22.0628696 21.0628696,23.3336494 19.5037934,23.3336494 Z M25.0572911,15.9631262 C25.0572911,15.401707 24.6020864,14.9465023 24.0406672,14.9465023 C23.479248,14.9465023 23.0240433,15.401707 23.0240433,15.9631262 C23.0240433,16.5245454 23.4754546,16.9797501 24.0406672,16.9797501 C24.6020864,16.9797501 25.0572911,16.5283387 25.0572911,15.9631262 Z M27.9440478,16.9949236 C27.8795604,15.6331028 27.5685038,14.4268102 26.5708468,13.4329466 C25.5769832,12.4390829 24.3706906,12.1280263 23.0088698,12.0597456 C21.6053219,11.9800848 17.3984715,11.9800848 15.9949236,12.0597456 C14.6368961,12.124233 13.4306036,12.4352895 12.4329466,13.4291532 C11.4352895,14.4230168 11.1280263,15.6293094 11.0597456,16.9911302 C10.9800848,18.3946781 10.9800848,22.6015285 11.0597456,24.0050764 C11.124233,25.3668972 11.4352895,26.5731898 12.4329466,27.5670534 C13.4306036,28.5609171 14.6331028,28.8719737 15.9949236,28.9402544 C17.3984715,29.0199152 21.6053219,29.0199152 23.0088698,28.9402544 C24.3706906,28.875767 25.5769832,28.5647105 26.5708468,27.5670534 C27.5647105,26.5731898 27.875767,25.3668972 27.9440478,24.0050764 C28.0237086,22.6015285 28.0237086,18.3984715 27.9440478,16.9949236 Z M26.1308156,25.5110454 C25.8349325,26.2545465 25.2621332,26.8273458 24.5148388,27.1270222 C23.3957938,27.5708468 20.7404329,27.4684258 19.5037934,27.4684258 C18.2671539,27.4684258 15.6079996,27.5670534 14.492748,27.1270222 C13.7492469,26.8311391 13.1764476,26.2583398 12.8767712,25.5110454 C12.4329466,24.3920004 12.5353676,21.7366395 12.5353676,20.5 C12.5353676,19.2633605 12.4367399,16.6042062 12.8767712,15.4889546 C13.1726542,14.7454535 13.7454535,14.1726542 14.492748,13.8729778 C15.6117929,13.4291532 18.2671539,13.5315742 19.5037934,13.5315742 C20.7404329,13.5315742 23.3995872,13.4329466 24.5148388,13.8729778 C25.2583398,14.1688609 25.8311391,14.7416602 26.1308156,15.4889546 C26.5746402,16.6079996 26.4722191,19.2633605 26.4722191,20.5 C26.4722191,21.7366395 26.5746402,24.3957938 26.1308156,25.5110454 Z" id="instagram"></path>
                </g>
            </g>
        </g>
    </g>
</svg>